[
    {
        "nid": "Dragonspear",
        "name": "Dragonspear",
        "desc": "Effective against dragon units",
        "icon_nid": "Lance",
        "icon_index": [
            0,
            12
        ],
        "components": [
            [
                "weapon",
                null
            ],
            [
                "target_enemy",
                null
            ],
            [
                "level_exp",
                null
            ],
            [
                "damage",
                10
            ],
            [
                "hit",
                70
            ],
            [
                "weapon_type",
                "Lance"
            ],
            [
                "weapon_rank",
                "C"
            ],
            [
                "uses",
                30
            ],
            [
                "weight",
                8
            ],
            [
                "crit",
                0
            ],
            [
                "value",
                4500
            ],
            [
                "min_range",
                1
            ],
            [
                "max_range",
                1
            ],
            [
                "effective",
                20
            ],
            [
                "effective_tag",
                [
                    "Dragon"
                ]
            ]
        ]
    }
]