[
    {
        "nid": "Energy Ring",
        "name": "Energy Ring",
        "desc": "Permanently raises Strength/Magic by 2 points.",
        "icon_nid": "Boosters",
        "icon_index": [
            0,
            1
        ],
        "components": [
            [
                "usable",
                null
            ],
            [
                "target_ally",
                null
            ],
            [
                "uses",
                1
            ],
            [
                "permanent_stat_change",
                [
                    [
                        "STR",
                        2
                    ],
                    [
                        "MAG",
                        2
                    ]
                ]
            ],
            [
                "usable_in_base",
                null
            ],
            [
                "value",
                8000
            ]
        ]
    }
]