[
    {
        "nid": "Fortify",
        "name": "Fortify",
        "desc": "Restores (User's Magic + 10) HP to all allies within range.",
        "icon_nid": "Staff",
        "icon_index": [
            0,
            4
        ],
        "components": [
            [
                "spell",
                null
            ],
            [
                "target_ally",
                null
            ],
            [
                "weapon_type",
                "Staff"
            ],
            [
                "weapon_rank",
                "A"
            ],
            [
                "magic",
                null
            ],
            [
                "uses",
                8
            ],
            [
                "wexp",
                5
            ],
            [
                "exp",
                60
            ],
            [
                "value",
                8000
            ],
            [
                "magic_heal",
                10
            ],
            [
                "equation_blast_aoe",
                "MAGIC_RANGE"
            ]
        ]
    }
]