[
    {
        "nid": "Lancereaver",
        "name": "Lancereaver",
        "desc": "Reverses the weapon triangle.",
        "icon_nid": "Sword",
        "icon_index": [
            0,
            16
        ],
        "components": [
            [
                "weapon",
                null
            ],
            [
                "value",
                1800
            ],
            [
                "target_enemy",
                null
            ],
            [
                "min_range",
                1
            ],
            [
                "max_range",
                1
            ],
            [
                "damage",
                9
            ],
            [
                "hit",
                75
            ],
            [
                "crit",
                5
            ],
            [
                "weight",
                9
            ],
            [
                "level_exp",
                null
            ],
            [
                "weapon_type",
                "Sword"
            ],
            [
                "weapon_rank",
                "C"
            ],
            [
                "uses",
                15
            ],
            [
                "wexp",
                2
            ],
            [
                "reaver",
                null
            ]
        ]
    }
]