[
    {
        "nid": "Steel Bow",
        "name": "Steel Bow",
        "desc": "",
        "icon_nid": "Bow",
        "icon_index": [
            0,
            1
        ],
        "components": [
            [
                "weapon",
                null
            ],
            [
                "target_enemy",
                null
            ],
            [
                "level_exp",
                null
            ],
            [
                "damage",
                9
            ],
            [
                "hit",
                70
            ],
            [
                "weapon_type",
                "Bow"
            ],
            [
                "weapon_rank",
                "D"
            ],
            [
                "uses",
                30
            ],
            [
                "weight",
                9
            ],
            [
                "crit",
                0
            ],
            [
                "value",
                720
            ],
            [
                "min_range",
                2
            ],
            [
                "max_range",
                2
            ],
            [
                "effective",
                18
            ],
            [
                "effective_tag",
                [
                    "Flying"
                ]
            ]
        ]
    }
]