[
    {
        "nid": "Thunder",
        "name": "Thunder",
        "desc": "",
        "icon_nid": "Anima",
        "icon_index": [
            0,
            1
        ],
        "components": [
            [
                "weapon",
                null
            ],
            [
                "target_enemy",
                null
            ],
            [
                "min_range",
                1
            ],
            [
                "max_range",
                2
            ],
            [
                "damage",
                8
            ],
            [
                "hit",
                80
            ],
            [
                "crit",
                5
            ],
            [
                "weight",
                6
            ],
            [
                "level_exp",
                null
            ],
            [
                "weapon_type",
                "Anima"
            ],
            [
                "weapon_rank",
                "D"
            ],
            [
                "map_hit_add_blend",
                [
                    251,
                    255,
                    0
                ]
            ],
            [
                "magic",
                null
            ],
            [
                "value",
                700
            ],
            [
                "uses",
                35
            ]
        ]
    }
]