[
    {
        "nid": "Tomahawk",
        "name": "Tomahawk",
        "desc": "",
        "icon_nid": "Axe",
        "icon_index": [
            0,
            10
        ],
        "components": [
            [
                "weapon",
                null
            ],
            [
                "target_enemy",
                null
            ],
            [
                "min_range",
                1
            ],
            [
                "max_range",
                2
            ],
            [
                "damage",
                13
            ],
            [
                "hit",
                65
            ],
            [
                "crit",
                0
            ],
            [
                "weight",
                14
            ],
            [
                "uses",
                15
            ],
            [
                "level_exp",
                null
            ],
            [
                "weapon_type",
                "Axe"
            ],
            [
                "weapon_rank",
                "A"
            ],
            [
                "value",
                3000
            ]
        ]
    }
]