[
    {
        "nid": "Trade",
        "name": "Trade",
        "desc": "Trade with a far away ally.",
        "icon_nid": "Staff",
        "icon_index": [
            0,
            7
        ],
        "components": [
            [
                "spell",
                null
            ],
            [
                "value",
                600
            ],
            [
                "target_ally",
                null
            ],
            [
                "min_range",
                1
            ],
            [
                "max_range",
                10
            ],
            [
                "weapon_type",
                "Staff"
            ],
            [
                "weapon_rank",
                "E"
            ],
            [
                "uses",
                10
            ],
            [
                "exp",
                11
            ],
            [
                "wexp",
                2
            ],
            [
                "map_hit_add_blend",
                [
                    232,
                    200,
                    15
                ]
            ],
            [
                "trade",
                null
            ],
            [
                "menu_after_combat",
                null
            ]
        ]
    }
]