[
    {
        "nid": "Wind Sword",
        "name": "Wind Sword",
        "desc": "Uses MAG to determine damage. Effective against fliers.",
        "icon_nid": "Sword",
        "icon_index": [
            0,
            20
        ],
        "components": [
            [
                "weapon",
                null
            ],
            [
                "target_enemy",
                null
            ],
            [
                "level_exp",
                null
            ],
            [
                "damage",
                9
            ],
            [
                "hit",
                70
            ],
            [
                "weapon_type",
                "Sword"
            ],
            [
                "weapon_rank",
                "B"
            ],
            [
                "uses",
                40
            ],
            [
                "weight",
                9
            ],
            [
                "effective",
                18
            ],
            [
                "value",
                8000
            ],
            [
                "min_range",
                1
            ],
            [
                "max_range",
                2
            ],
            [
                "effective_tag",
                [
                    "Flying"
                ]
            ]
        ]
    }
]