[
    {
        "nid": "Wyrmslayer",
        "name": "Wyrmslayer",
        "desc": "Effective against dragon units.",
        "icon_nid": "Sword",
        "icon_index": [
            0,
            13
        ],
        "components": [
            [
                "weapon",
                null
            ],
            [
                "target_enemy",
                null
            ],
            [
                "level_exp",
                null
            ],
            [
                "damage",
                8
            ],
            [
                "hit",
                75
            ],
            [
                "weapon_type",
                "Sword"
            ],
            [
                "weapon_rank",
                "C"
            ],
            [
                "uses",
                30
            ],
            [
                "weight",
                5
            ],
            [
                "crit",
                0
            ],
            [
                "value",
                4500
            ],
            [
                "min_range",
                1
            ],
            [
                "max_range",
                1
            ],
            [
                "effective",
                16
            ],
            [
                "effective_tag",
                [
                    "Dragon"
                ]
            ]
        ]
    }
]